@startuml

title Class diagram SenseHAT\n

class Pixel

class SenseHAT <<non-copyable>>

LedMatrix -down-> Pixel
note on link #red: association: uses

SenseHAT *-down- "1 " Joystick
SenseHAT *-down- "1 " LedMatrix
note on link #green: multiplicity == 1

@enduml