@startuml

title Class diagram Composite pattern\n

class Device <<abstract>>

Device <|--- Motor
CompositeDevice "1 " o--- "*" Device
Device <|--- CompositeDevice

Device : +<<virtual>> selftest() {abstract}
note right: Device: Abstract Base Class
Motor : +<<virtual>> selftest()
note left: Motor IS-A\n Device
CompositeDevice : +<<virtual>> selftest()
CompositeDevice : +addDevice(dev: Device&)
CompositeDevice : -devices_ : vector<Device*>
note right: CompositeDevice IS-A\n Device

@enduml